{
    "addPatient": {
        "title": "Success!",
        "content": "<span>Record succesfully added</span>",
        "button": "<a href=\"#\" class=\"button solid\" data-close=\"modal\">Okay</a>",
        "size": "270px"
    },
    "updatePatient": {
        "title": "Success!",
        "content": "<span>Record succesfully updated</span>",
        "button": "<a href=\"#\" class=\"button solid\" data-close=\"modal\">Okay</a>",
        "size": "270px"
    },
    "deletePatient": {
        "title": "Are you sure?",
        "content": "<span>You cannot undo this deletion</span>",
        "button": "<a href=\"#\" class=\"button solid confirm-patient-delete\" data-close=\"modal\">Yes</a> <a href=\"#\" class=\"button solid\" data-close=\"modal\">Cancel</a>",
        "size": "280px"
    },
    "deletePatientSuccess": {
        "title": "Success!",
        "content": "<span>Record successfully deleted</span>",
        "button": "<a href=\"#\" class=\"button solid\" data-close=\"modal\">Okay</a>",
        "size": "280px"
    },
    "deleteMedRecord": {
        "title": "Delete Record",
        "content": "<span>Are you sure you want to remove <i class=\"rec-title\"></i>?</span>",
        "button": "<a href=\"#\" class=\"button solid confirm-rec-delete\" data-close=\"modal\">Yes</a> <a href=\"#\" class=\"button solid\" data-close=\"modal\">Cancel</a>",
        "size": "280px"
    },
    "contactList": {
        "title": "Contacts",
        "content": "<div class=\"contact-list\"></div>",
        "button": "<a href=\"#\" class=\"button solid\" data-close=\"modal\">Cancel</a>",
        "size": "320px"
    },
    "databaseFailed": {
        "title": "Failed!",
        "content": "<span>Cannot connect to database</span>",
        "button": "<a href=\"#\" class=\"button solid\" data-close=\"modal\">Okay</a>",
        "size": "280px"
    },
    "inputBlank": {
        "title": "Oops!",
        "content": "<span>You can't send a blank message</span>",
        "button": "<a href=\"#\" class=\"button solid\" data-close=\"modal\">Okay</a>",
        "size": "280px"
    },
    "maxMessage": {
        "title": "Oops!",
        "content": "<span>300 character limit exceeded</span>",
        "button": "<a href=\"#\" class=\"button solid\" data-close=\"modal\">Okay</a>",
        "size": "280px"
    },
    "noContact": {
        "title": "Oops!",
        "content": "<span>No contact selected</span>",
        "button": "<a href=\"#\" class=\"button solid\" data-close=\"modal\">Okay</a>",
        "size": "250px"
    },
    "fieldIsRequired": {
        "title": "Oops!",
        "content": "<span>Please fill out this field: <i class=\"required-fields\"></i></span>",
        "button": "<a href=\"#\" class=\"button solid\" data-close=\"modal\">Okay</a>",
        "size": "280px"
    },
    "contactNAN": {
        "title": "Oops!",
        "content": "<span>Contact number must only contain numbers</span>",
        "button": "<a href=\"#\" class=\"button solid\" data-close=\"modal\">Okay</a>",
        "size": "340px"
    },
    "obHistoryInc": {
        "title": "Oops!",
        "content": "<span>Please complete OB History fields<span>",
        "button": "<a href=\"#\" class=\"button solid\" data-close=\"modal\">Okay</a>",
        "size": "280px"
    },
    "successChangeFollowupStatus": {
        "title": "Success!",
        "content": "<span>Marked this task as <i></i>!</span>",
        "button": "<a href=\"#\" class=\"button solid\" data-close=\"modal\">Okay</a>",
        "size": "270px"
    },
    "noFollowUp": {
        "title": "Oops!",
        "content": "<span>No follow up task available.</span>",
        "button": "<a href=\"#\" class=\"button solid\" pin=\"dashboard\" data-close=\"modal\">Go to dashboard</a>",
        "size": "270px"
    },
    "logout": {
        "title": "Are you sure?",
        "content": "<span>You are about to log out from the system</span>",
        "button": "<a href=\"/logout\" class=\"button solid\" data-close=\"modal\">Okay</a> <a href=\"#\" class=\"button solid\" data-close=\"modal\">Cancel</a>",
        "size": "320px"
    },
    "allowAudio": {
        "title": "Allow Audio Notification",
        "content": "<span>Please allow this to enable system notification sound</span>",
        "button": "<a href=\"#\" class=\"button solid\" onclick=\"$('#message-audio').get(0).play(); $('#notification-audio').get(0).play(); localStorage.setItem('audioAllowedDashboard', true);\" data-close=\"modal\">Allow Notifications</a>",
        "size": "400px"
    }
}
